%YAML 1.1
%TAG !u! tag:unity3d.com,2011:
--- !u!114 &11400000
MonoBehaviour:
  m_ObjectHideFlags: 0
  m_CorrespondingSourceObject: {fileID: 0}
  m_PrefabInstance: {fileID: 0}
  m_PrefabAsset: {fileID: 0}
  m_GameObject: {fileID: 0}
  m_Enabled: 1
  m_EditorHideFlags: 0
  m_Script: {fileID: 11500000, guid: 56f9433fc7e5aa047a4e0196f2f18a83, type: 3}
  m_Name: Frindly3
  m_EditorClassIdentifier: 
  _mainSprite: {fileID: 21300000, guid: aaea1d2402e297e409c422e4c2407e62, type: 3}
  _speed: 0.06
  _gain: 1
